<svg xmlns="http://www.w3.org/2000/svg" version="1.1" xmlns:xlink="http://www.w3.org/1999/xlink" xmlns:svgjs="http://svgjs.com/svgjs" width="1367" height="800" preserveAspectRatio="none" viewBox="0 0 1367 800"><g mask="url(&quot;#SvgjsMask1027&quot;)" fill="none"><rect width="1367" height="800" x="0" y="0" fill="rgba(255, 255, 255, 1)"></rect><path d="M191.40767068354967 878.6312613860882L227.93489372862498 691.6664649096415 69.55872814729884 743.1260005208585z" fill="rgba(185, 143, 121, 0.42)" class="triangle-float2"></path><path d="M1084.700374956597 711.9430896987146L863.5630833295788 656.583467532043 915.1390147231205 849.0674639404269z" fill="rgba(185, 143, 121, 0.42)" class="triangle-float3"></path><path d="M344.45 239.01 a140.28 140.28 0 1 0 280.56 0 a140.28 140.28 0 1 0 -280.56 0z" fill="rgba(185, 143, 121, 0.42)" class="triangle-float1"></path><path d="M978.5278929142327 380.90531734776766L1161.6408012764502 381.07982790513506 1084.037541642931 241.07984156153924z" fill="rgba(185, 143, 121, 0.42)" class="triangle-float3"></path><path d="M961.5794548463629 430.16190903836934L922.185600317625 244.82839489405487 776.2459407020484 469.55576356710725z" fill="rgba(185, 143, 121, 0.42)" class="triangle-float1"></path></g><defs><mask id="SvgjsMask1027"><rect width="1367" height="800" fill="#ffffff"></rect></mask><style>
            @keyframes float1 {
                0%{transform: translate(0, 0)}
                50%{transform: translate(-10px, 0)}
                100%{transform: translate(0, 0)}
            }

            .triangle-float1 {
                animation: float1 5s infinite;
            }

            @keyframes float2 {
                0%{transform: translate(0, 0)}
                50%{transform: translate(-5px, -5px)}
                100%{transform: translate(0, 0)}
            }

            .triangle-float2 {
                animation: float2 4s infinite;
            }

            @keyframes float3 {
                0%{transform: translate(0, 0)}
                50%{transform: translate(0, -10px)}
                100%{transform: translate(0, 0)}
            }

            .triangle-float3 {
                animation: float3 6s infinite;
            }
        </style></defs></svg>